{
    "debugMode" : 1,
    "showFPS" : true,
    "frameRate" : 60,
    "id" : "gameCanvas",
    "renderMode" : 0,
    "engineDir":"../../frameworks/cocos2d-html5",

    "modules" : ["cocos2d"],


    "jsList" : [
      "src/resource.js",
      "src/config.js",
      "src/EnemyType.js",
      "src/bullet.js",
      "src/tank.js",
      "src/listener.js",
      "src/enemy.js",
      "src/gameLayer.js",
      "src/app.js",
      "src/gameOver.js"
    ]
}